Module 7: Grouped Analysis
…
grouped summary with `group_by()` + `summarize()`

Use case: You want summary statistics for certain subsets of the data.

texas_housing_data %>%
  group_by(city, year) %>%
  summarize(total_sales = sum(sales, na.rm = TRUE),
            total_volume = sum(volume, na.rm = TRUE),
            mean_house_price = total_volume / total_sales)

# A tibble: 736 x 5
# Groups:   city [46]
   city     year total_sales total_volume mean_house_price
   <chr>   <dbl>       <dbl>        <dbl>            <dbl>
 1 Abilene  2000        1375    108575000           78964.
 2 Abilene  2001        1431    114365000           79920.
 3 Abilene  2002        1516    118675000           78282.
 4 Abilene  2003        1632    135675000           83134.
 5 Abilene  2004        1830    159670000           87251.
 6 Abilene  2005        1977    198855000          100584.
 7 Abilene  2006        1997    227530000          113936.
 8 Abilene  2007        2003    232062585          115858.
 9 Abilene  2008        1651    192520335          116608.
10 Abilene  2009        1634    202357756          123842.
#  with 726 more rows
…
[[735]]
 [1] 8584 8585 8586 8587 8588 8589 8590 8591 8592 8593 8594 8595

[[736]]
[1] 8596 8597 8598 8599 8600 8601 8602

Grouping columns have some restrictions

For example, you cannot remove them from the tibble

a_grouped_df %>% 
  select(-year)

# A tibble: 8,602 x 2
# Groups:   city, year [736]
    year city   
   <dbl> <chr>  
 1  2000 Abilene
 2  2000 Abilene
 3  2000 Abilene
 4  2000 Abilene
 5  2000 Abilene
 6  2000 Abilene
 7  2000 Abilene
 8  2000 Abilene
 9  2000 Abilene
10  2000 Abilene
#  with 8,592 more rows

To get rid of groups, use `ungroup()`

a_grouped_df %>% 
  ungroup() %>% 
  select(-year)

# A tibble: 8,602 x 1
   city   
   <chr>  
 1 Abilene
 2 Abilene
 3 Abilene
 4 Abilene
 5 Abilene
 6 Abilene
 7 Abilene
 8 Abilene
 9 Abilene
10 Abilene
#  with 8,592 more rows
…
grouped filter

Use case: You want to work with the top 10 cities for each year, you can

july_texas_housing_data %>% 
  group_by(year) %>% 
  filter(rank(desc(sales)) <= 10) %>% 
  arrange(year, sales)

# A tibble: 160 x 3
# Groups:   year [16]
   city               year sales
   <chr>             <dbl> <dbl>
 1 Montgomery County  2000   463
 2 Fort Worth         2000   548
 3 Denton County      2000   638
 4 NE Tarrant County  2000   686
 5 Fort Bend          2000   753
 6 Collin County      2000  1007
 7 San Antonio        2000  1508
 8 Austin             2000  1818
 9 Dallas             2000  4276
10 Houston            2000  5009
#  with 150 more rows
…
