Jacob Jameson - Module 5: Data Manipulation and Analysis II
…
non_college_jobs
Number with job not requiring a college degree

low_wage_jobs
Number in low-wage service jobs

Which major has the lowest unemployment rate?

In order to answer this question all we need to do is sort the data. We use the arrange function to do this, and sort it by the unemployment_rate variable. By default arrange sorts in ascending order, which is what we want here – we’re interested in the major with the lowest unemployment rate.

college_recent_grads %>%
  arrange(unemployment_rate)

# A tibble: 173 × 21
    rank major…¹ major major…² total sampl…³ men   women share…⁴ emplo…⁵ emplo…⁶
   <dbl>   <dbl> <chr> <chr>   <chr>   <dbl> <chr> <chr> <chr>     <dbl>   <dbl>
 1    53    4005 Math… Comput… 609         7 500   109   0.1789…     559     584
 2    74    3801 Mili… Indust… 124         4 124   0     0             0     111
 3    84    3602 Bota… Biolog… 1329        9 626   703   0.5289…    1010     946
 4   113    1106 Soil… Agricu… 685         4 476   209   0.3051…     613     488
 5   121    2301 Educ… Educat… 804         5 280   524   0.6517…     703     733
 6    15    2409 Engi… Engine… 4321       30 3526  795   0.1839…    3608    2999
 7    20    3201 Cour… Law & … 1148       14 877   271   0.2360…     930     808
 8   120    2305 Math… Educat… 14237     123 3872  10365 0.7280…   13115   11259
 9     1    2419 Petr… Engine… 2339       36 2057  282   0.1205…    1976    1849
10    65    1100 Gene… Agricu… 10399     158 6053  4346  0.4179…    8884    7589
# … with 163 more rows, 10 more variables: employed_parttime <dbl>,
#   employed_fulltime_yearround <dbl>, unemployed <dbl>,
#   unemployment_rate <dbl>, p25th <dbl>, median <dbl>, p75th <dbl>,
#   college_jobs <dbl>, non_college_jobs <dbl>, low_wage_jobs <dbl>, and
#   abbreviated variable names ¹​major_code, ²​major_category, ³​sample_size,
#   ⁴​sharewomen, ⁵​employed, ⁶​employed_fulltime

This gives us what we wanted, but not in an ideal form. First, the name of the major barely fits on the page. Second, some of the variables are not that useful (e.g. major_code, major_category) and some we might want front and center are not easily viewed (e.g. unemployment_rate).

We can use the select function to choose which variables to display, and in which order:

college_recent_grads %>%
  arrange(unemployment_rate) %>%
  select(rank, major, unemployment_rate)

# A tibble: 173 × 3
    rank major                                      unemployment_rate
   <dbl> <chr>                                                  <dbl>
 1    53 Mathematics And Computer Science                     0      
 2    74 Military Technologies                                0      
 3    84 Botany                                               0      
 4   113 Soil Science                                         0      
 5   121 Educational Administration And Supervision           0      
 6    15 Engineering Mechanics Physics And Science            0.00633
 7    20 Court Reporting                                      0.0117 
 8   120 Mathematics Teacher Education                        0.0162 
 9     1 Petroleum Engineering                                0.0184 
10    65 General Agriculture                                  0.0196 
# … with 163 more rows
…
college_recent_grads <- college_recent_grads %>%
  mutate(sharewomen = as.numeric(___))

Which major has the highest percentage of women?

To answer such a question we need to arrange the data in descending order. For example, if earlier we were interested in the major with the highest unemployment rate, we would use the following:

The desc function specifies that we want unemployment_rate in descending order.

college_recent_grads %>%
  arrange(desc(unemployment_rate)) %>%
  select(rank, major, unemployment_rate)

# A tibble: 173 × 3
    rank major                                      unemployment_rate
   <dbl> <chr>                                                  <dbl>
 1     6 Nuclear Engineering                                    0.177
 2    90 Public Administration                                  0.159
 3    85 Computer Networking And Telecommunications             0.152
 4   171 Clinical Psychology                                    0.149
 5    30 Public Policy                                          0.128
 6   106 Communication Technologies                             0.120
 7     2 Mining And Mineral Engineering                         0.117
 8    54 Computer Programming And Data Processing               0.114
 9    80 Geography                                              0.113
10    59 Architecture                                           0.113
# … with 163 more rows
…
